{
  "login": {
    "token": "uhefuwehfhewohfowe23523.wefewfew.fewfwefw",
    "role": "admin",
    "displayName": "Mario Biondi"
  },
  "users": [
    {
      "id": 1,
      "name": "Fabio"
    },
    {
      "id": 2,
      "name": "Lorenzo"
    }
  ],
  "posts": [
    {
      "id": 1,
      "name": "News 1"
    },
    {
      "id": 2,
      "name": "News 2"
    }
  ]
}
